<svg width="1182" height="1760" viewBox="0 0 1182 1760" fill="none" xmlns="http://www.w3.org/2000/svg">
<g filter="url(#filter0_d_2163)">
<path d="M111 1752C700.288 1752 1178 1359.8 1178 876C1178 392.199 700.288 0 111 0C-478.288 0 -956 392.199 -956 876C-956 1359.8 -478.288 1752 111 1752Z" fill="url(#paint0_radial_2163)" fill-opacity="0.18" shape-rendering="crispEdges"/>
</g>
<defs>
<filter id="filter0_d_2163" x="-960" y="0" width="2142" height="1760" filterUnits="userSpaceOnUse" color-interpolation-filters="sRGB">
<feFlood flood-opacity="0" result="BackgroundImageFix"/>
<feOffset dy="4"/>
<feGaussianBlur stdDeviation="2"/>
<feComposite in2="hardAlpha" operator="out"/>
<feBlend mode="normal" in2="BackgroundImageFix" result="effect1_dropShadow_2163"/>
<feBlend mode="normal" in="SourceGraphic" in2="effect1_dropShadow_2163" result="shape"/>
</filter>
<radialGradient id="paint0_radial_2163" cx="0" cy="0" r="1" gradientUnits="userSpaceOnUse" gradientTransform="translate(111.004 876) scale(1067 875.997)">
<stop stop-color="#FF2F2B"/>
<stop offset="1" stop-color="#FF9CEB" stop-opacity="0"/>
</radialGradient>
</defs>
</svg>
