<svg width="648" height="2118" viewBox="0 0 648 2118" fill="none" xmlns="http://www.w3.org/2000/svg">
<path d="M-962.139 1531.92C-589.976 2054.74 8.98743 2266.97 375.683 2005.94C742.38 1744.91 737.948 1109.48 365.785 586.655C-6.37845 63.8318 -605.342 -148.396 -972.038 112.63C-1338.73 373.657 -1334.3 1009.09 -962.139 1531.92Z" fill="url(#paint0_radial_2163)" fill-opacity="0.46"/>
<defs>
<radialGradient id="paint0_radial_2163" cx="0" cy="0" r="1" gradientUnits="userSpaceOnUse" gradientTransform="translate(-291.173 1061.77) rotate(55.0831) scale(1164.35 816.719)">
<stop stop-color="#D636D6"/>
<stop offset="1" stop-color="#85FFE0" stop-opacity="0"/>
</radialGradient>
</defs>
</svg>
