<svg width="700" height="1694" viewBox="0 0 700 1694" fill="none" xmlns="http://www.w3.org/2000/svg">
<path d="M1173 1694C1820.83 1694 2346 1314.79 2346 847C2346 379.215 1820.83 0 1173 0C525.17 0 0 379.215 0 847C0 1314.79 525.17 1694 1173 1694Z" fill="url(#paint0_radial_2163)" fill-opacity="0.46"/>
<defs>
<radialGradient id="paint0_radial_2163" cx="0" cy="0" r="1" gradientUnits="userSpaceOnUse" gradientTransform="translate(1179.14 842.565) rotate(0.543261) scale(1175.37 848.785)">
<stop stop-color="#D636D6"/>
<stop offset="1" stop-color="#85AEFF" stop-opacity="0"/>
</radialGradient>
</defs>
</svg>
