<svg width="326" height="241" viewBox="0 0 326 241" fill="none" xmlns="http://www.w3.org/2000/svg">
<path d="M284.764 143.331C308.091 168.871 322.152 192.1 324.822 209.506C327.492 226.913 318.625 237.55 299.563 239.811C280.5 242.071 252.278 235.832 219.162 222.036C186.047 208.24 149.839 187.637 116.011 163.342C82.1843 139.048 52.5773 112.382 31.6663 87.3761C10.7554 62.3704 -0.322635 40.3843 0.106993 24.7416C0.53662 9.0989 12.4505 0.650034 34.0477 0.672272C55.6448 0.694509 85.7509 9.18664 119.815 24.8649L122.112 29.9862C89.8725 15.1479 61.3791 7.11067 40.939 7.08962C20.4988 7.06857 9.22309 15.0648 8.81648 29.8696C8.40986 44.6743 18.8945 65.4826 38.6852 89.1488C58.476 112.815 86.4969 138.052 118.512 161.045C150.527 184.039 184.796 203.538 216.137 216.595C247.479 229.652 274.189 235.557 292.231 233.418C310.272 231.278 318.664 221.211 316.137 204.737C313.61 188.263 300.302 166.278 278.225 142.107L284.764 143.331Z" fill="#C29BE1"/>
</svg>
