<svg width="448" height="448" viewBox="0 0 448 448" fill="none" xmlns="http://www.w3.org/2000/svg">
<path d="M224 448C347.712 448 448 347.712 448 224C448 100.288 347.712 0 224 0C100.288 0 0 100.288 0 224C0 347.712 100.288 448 224 448Z" fill="url(#paint0_radial_1701:4400)" fill-opacity="0.38"/>
<defs>
<radialGradient id="paint0_radial_1701:4400" cx="0" cy="0" r="1" gradientUnits="userSpaceOnUse" gradientTransform="translate(224.001 224) scale(223.999)">
<stop stop-color="#A22F77"/>
<stop offset="1" stop-color="#7D2FB7" stop-opacity="0"/>
</radialGradient>
</defs>
</svg>
