<svg width="48" height="48" viewBox="0 0 48 48" fill="none" xmlns="http://www.w3.org/2000/svg">
<path fill-rule="evenodd" clip-rule="evenodd" d="M25 14H23V23H14V25H23V34H25V25H34V23H25V14Z" fill="#F195CD"/>
<rect x="0.5" y="0.5" width="47" height="47" rx="23.5" stroke="#F195CD"/>
</svg>
