<svg width="39" height="76" viewBox="0 0 39 76" fill="none" xmlns="http://www.w3.org/2000/svg">
<g style="mix-blend-mode:overlay">
<line x1="19.5" y1="1.5" x2="19.5" y2="74.5" stroke="white" stroke-width="3" stroke-linecap="round"/>
<line x1="1.5" y1="-1.5" x2="29.2905" y2="-1.5" transform="matrix(0.603142 0.797633 -0.915038 0.403368 0 51.4119)" stroke="white" stroke-width="3" stroke-linecap="round"/>
<line x1="1.5" y1="-1.5" x2="29.2905" y2="-1.5" transform="matrix(0.603142 -0.797633 0.915038 0.403368 20.4297 75.9714)" stroke="white" stroke-width="3" stroke-linecap="round"/>
</g>
</svg>
