<svg width="32" height="27" viewBox="0 0 32 27" fill="none" xmlns="http://www.w3.org/2000/svg">
<path d="M12.5565 17.7948L12.0272 25.3332C12.7845 25.3332 13.1126 25.0038 13.5059 24.6082L17.0566 21.1725L24.4142 26.6278C25.7635 27.3892 26.7142 26.9883 27.0782 25.371L31.9077 2.45888L31.909 2.45753C32.337 0.437945 31.1877 -0.351801 29.873 0.143647L1.48561 11.1474C-0.451774 11.9088 -0.42244 13.0023 1.15626 13.4978L8.41377 15.7833L25.2715 5.10352C26.0649 4.57162 26.7862 4.86592 26.1929 5.39782L12.5565 17.7948Z" fill="url(#paint0_linear_1701:4537)"/>
<defs>
<linearGradient id="paint0_linear_1701:4537" x1="16" y1="0" x2="16" y2="27" gradientUnits="userSpaceOnUse">
<stop stop-color="#FCFBFF"/>
<stop offset="1" stop-color="#6C49FC"/>
</linearGradient>
</defs>
</svg>
